Exploring the BRFSS data: Health, Wealth and the Greens
…
As the final part of this question, lets assess the relationship between income level(categorical), health(categorical) and fruits/vegetables(numerical) consumption by comparing the measures of center and spread by calculating summary statistics and using facet plots.

fruit_vege_consumption %>% 
    group_by(X_incomg, genhlth) %>%  
    summarise(count=n(),
      fruit_vege_min = min(fruit_vege_sum),
      fruit_vege_IQR = IQR(fruit_vege_sum),
      fruit_vege_Q1 = quantile(fruit_vege_sum, 0.25),
      fruit_vege_median = median(fruit_vege_sum), 
      fruit_vege_Q3 = quantile(fruit_vege_sum, 0.75),
      fruit_vege_max = max(fruit_vege_sum))

## `summarise()` regrouping output by 'X_incomg' (override with `.groups` argument)

## # A tibble: 25 x 9
## # Groups:   X_incomg [5]
##    X_incomg genhlth count fruit_vege_min fruit_vege_IQR fruit_vege_Q1
##    <fct>    <fct>   <int>          <dbl>          <dbl>         <dbl>
##  1 Less th Poor     7529              0           2.33          1.27
##  2 Less th Fair    12213              0           2.25          1.38
##  3 Less th Good    13717              0           2.36          1.48
##  4 Less th Very g  7417              0           2.51          1.62
##  5 Less th Excell  3804              0           2.80          1.73
##  6 $15,000 Poor     6008              0           2.26          1.46
##  7 $15,000 Fair    13865              0           2.18          1.54
##  8 $15,000 Good    23394              0           2.21          1.69
##  9 $15,000 Very g 16277              0           2.31          1.86
## 10 $15,000 Excell  7262              0           2.57          1.99
## #  with 15 more rows, and 3 more variables: fruit_vege_median <dbl>,
## #   fruit_vege_Q3 <dbl>, fruit_vege_max <dbl>
…
